<svg viewBox="0 0 116 116" fill="none" xmlns="http://www.w3.org/2000/svg">
<g clip-path="url(#clip0)">
<path fill-rule="evenodd" clip-rule="evenodd" d="M57.9996 115.998C90.0317 115.998 115.999 90.0314 115.999 57.9993C115.999 25.9673 90.0317 0.000183105 57.9996 0.000183105C25.9676 0.000183105 0.000488281 25.9673 0.000488281 57.9993C0.000488281 90.0314 25.9676 115.998 57.9996 115.998Z" fill="#FFC925"/>
<path fill-rule="evenodd" clip-rule="evenodd" d="M58.001 103.433C83.0929 103.433 103.434 83.0918 103.434 57.9994C103.434 32.9075 83.0929 12.5665 58.001 12.5665C32.909 12.5665 12.5676 32.9075 12.5676 57.9994C12.5676 83.0918 32.909 103.433 58.001 103.433Z" fill="#3F3E40"/>
<path fill-rule="evenodd" clip-rule="evenodd" d="M44.7189 83.5197C44.6607 83.1947 44.6261 82.9051 44.6261 82.6265C44.6261 79.5643 48.2102 79.0188 48.2102 77.8241C48.2102 77.244 47.7465 77.0008 47.3169 77.0008C46.7837 77.0008 46.3309 77.4181 46.0877 77.8823L44.5793 76.873C45.0667 75.9334 46.0063 75.0865 47.5028 75.0865C48.8598 75.0865 50.3332 75.8638 50.3332 77.6268C50.3332 80.2139 46.9805 80.7126 46.8764 81.7796H50.4605V83.5197H44.7189ZM54.7178 83.6589C52.363 83.6589 51.5974 81.7332 51.5974 79.3552C51.5974 76.9776 52.363 75.0865 54.7178 75.0865C57.0726 75.0865 57.8382 76.9776 57.8382 79.3552C57.8382 81.7332 57.0726 83.6589 54.7178 83.6589ZM54.7178 81.8027C55.5183 81.8027 55.7502 80.7126 55.7502 79.3552C55.7502 78.01 55.5183 76.9426 54.7178 76.9426C53.9173 76.9426 53.6854 78.01 53.6854 79.3552C53.6854 80.7126 53.9173 81.8027 54.7178 81.8027ZM59.0447 83.5197V81.7796H60.8076V78.3228C60.8076 78.01 60.8194 77.685 60.8194 77.685H60.7962C60.7962 77.685 60.6917 77.9168 60.4712 78.1259L59.9725 78.5782L58.801 77.3254L61.0399 75.226H62.7915V81.7796H64.5662V83.5197H59.0447ZM65.6332 83.2993L66.1787 81.5595C66.5033 81.6986 66.9092 81.8027 67.3152 81.8027C68.2898 81.8027 68.8463 81.1999 69.1018 80.4339H69.0786C68.8927 80.5849 68.3362 80.724 67.9416 80.724C66.2133 80.724 65.2272 79.3088 65.2272 77.8823C65.2272 76.4785 66.2596 75.0865 68.0576 75.0865C69.7282 75.0865 71.4216 76.3512 71.4216 79.0538C71.4216 81.304 70.0414 83.6589 67.4661 83.6589C66.8511 83.6589 66.1901 83.5661 65.6332 83.2993ZM68.4753 79.0888C68.939 79.0888 69.3336 78.9724 69.3336 78.5896C69.3336 77.6036 68.6376 76.9426 68.0576 76.9426C67.5471 76.9426 67.2225 77.3836 67.2225 77.8704C67.2225 78.4623 67.582 79.0888 68.4753 79.0888Z" fill="white"/>
<path fill-rule="evenodd" clip-rule="evenodd" d="M19.4309 70.7601V62.4664H24.8247V64.2061H21.4607V65.494H22.8759C24.4883 65.494 25.5789 66.6073 25.5789 68.1388C25.5789 69.6699 24.4883 70.7601 22.8759 70.7601H19.4309ZM21.4607 69.0203H22.4931C23.1659 69.0203 23.5141 68.6607 23.5141 68.1388C23.5141 67.6165 23.1659 67.2338 22.4585 67.2338H21.4607V69.0203ZM25.9769 70.7601V64.7862H27.868V67.4197C27.868 67.6283 27.8562 67.8602 27.8448 68.0111H27.868C27.9721 67.7675 28.0884 67.5934 28.1926 67.4197L29.8514 64.7862H31.8003V70.7601H29.9096V68.1502C29.9096 68.0111 29.9096 67.7793 29.9327 67.547H29.9096C29.805 67.7906 29.6773 67.9761 29.5845 68.1388L27.9257 70.7601H25.9769ZM32.1059 70.0177L32.906 68.7653C33.2774 69.1017 33.8688 69.3913 34.3443 69.3913C34.9012 69.3913 35.0635 69.1481 35.0635 68.8694C35.0635 68.5794 34.9594 68.3707 34.4139 68.3707H33.6833V67.0483H34.2866C34.5998 67.0483 34.8898 66.9555 34.8898 66.5841C34.8898 66.3291 34.7735 66.1086 34.2634 66.1086C33.9384 66.1086 33.4747 66.19 32.8482 66.561L32.2682 65.3199C32.8251 64.9371 33.5906 64.6471 34.6808 64.6471C35.9104 64.6471 36.8847 65.2735 36.8847 66.3059C36.8847 67.0483 36.5019 67.4542 36.1423 67.6515V67.6747C36.5946 67.8834 37.0706 68.3011 37.0706 68.9971C37.0706 70.2614 36.015 70.8996 34.5998 70.8996C33.7179 70.8996 32.7551 70.5978 32.1059 70.0177ZM37.5499 70.7601V64.7862H39.5565V66.8974H41.4008V64.7862H43.4078V70.7601H41.4008V68.5794H39.5565V70.7601H37.5499ZM43.8758 67.7675C43.8758 66.0159 45.0587 64.6471 46.9843 64.6471C48.7477 64.6471 49.7451 65.8768 49.7451 67.5356C49.7451 67.7443 49.7219 67.9529 49.6987 68.162H45.9287C46.0797 68.8926 46.6829 69.229 47.3207 69.229C47.9122 69.229 48.4809 68.9508 48.9682 68.6257L49.7105 70.0295C49.0609 70.5864 48.0749 70.8996 47.1584 70.8996C45.0241 70.8996 43.8758 69.3567 43.8758 67.7675ZM45.9751 67.0137H47.7617C47.7617 66.5264 47.4485 66.1204 46.938 66.1204C46.3579 66.1204 46.0797 66.5378 45.9751 67.0137ZM49.9116 67.7675C49.9116 66.1668 51.0945 64.6471 53.2407 64.6471C54.0758 64.6471 55.0268 64.9139 55.6187 65.5517L54.7718 66.8974C54.424 66.561 53.8903 66.3177 53.3684 66.3177C52.4169 66.3177 51.9414 67.0369 51.9414 67.7443C51.9414 68.4521 52.4287 69.229 53.438 69.229C54.018 69.229 54.644 68.8812 55.0736 68.5098L55.8042 69.9136C55.2127 70.5169 54.2381 70.8996 53.2407 70.8996C51.1063 70.8996 49.9116 69.4145 49.9116 67.7675ZM55.8543 70.7601L56.4226 64.7862H58.7428L59.6243 67.4079C59.7289 67.7097 59.8562 68.1039 59.8562 68.1039H59.868C59.868 68.1039 60.0071 67.7097 60.1116 67.4079L60.9931 64.7862H63.3016L63.8698 70.7601H61.9441L61.805 68.0111C61.7936 67.547 61.8168 66.9901 61.8168 66.9901H61.7936C61.7936 66.9901 61.6195 67.5006 61.4686 67.872L60.6799 69.96H59.056L58.2673 67.872C58.1396 67.4892 57.9191 66.9901 57.9191 66.9901H57.8959C57.8959 66.9901 57.9309 67.547 57.9077 68.0111L57.7682 70.7601H55.8543ZM64.0827 67.7675C64.0827 66.0159 65.2656 64.6471 67.1913 64.6471C68.9546 64.6471 69.952 65.8768 69.952 67.5356C69.952 67.7443 69.9289 67.9529 69.9057 68.162H66.1357C66.2866 68.8926 66.8899 69.229 67.5277 69.229C68.1195 69.229 68.6878 68.9508 69.1751 68.6257L69.9175 70.0295C69.2679 70.5864 68.2818 70.8996 67.3654 70.8996C65.231 70.8996 64.0827 69.3567 64.0827 67.7675ZM66.1821 67.0137H67.9686C67.9686 66.5264 67.6554 66.1204 67.1449 66.1204C66.5648 66.1204 66.2866 66.5378 66.1821 67.0137ZM70.455 70.7601V64.7862H72.4616V66.8974H74.3059V64.7862H76.3129V70.7601H74.3059V68.5794H72.4616V70.7601H70.455ZM76.7804 67.7675C76.7804 66.1668 77.9637 64.6471 80.1099 64.6471C80.945 64.6471 81.896 64.9139 82.4875 65.5517L81.641 66.8974C81.2928 66.561 80.7591 66.3177 80.2372 66.3177C79.2862 66.3177 78.8107 67.0369 78.8107 67.7443C78.8107 68.4521 79.2976 69.229 80.3068 69.229C80.8868 69.229 81.5133 68.8812 81.9424 68.5098L82.6734 69.9136C82.0815 70.5169 81.1073 70.8996 80.1099 70.8996C77.9751 70.8996 76.7804 69.4145 76.7804 67.7675ZM82.9904 70.7601V68.858H84.8929V70.7601H82.9904ZM85.7086 73.0803V64.7862H87.5184V65.088C87.5184 65.2853 87.4952 65.4708 87.4952 65.4708H87.5184C87.9243 64.9257 88.6085 64.6471 89.3277 64.6471C90.9519 64.6471 92.0189 65.9231 92.0189 67.7793C92.0189 69.6699 90.8242 70.8996 89.2349 70.8996C88.6781 70.8996 88.1448 70.7023 87.7152 70.3309H87.692C87.692 70.3309 87.7152 70.54 87.7152 70.8415V73.0803H85.7086ZM87.6575 67.8138C87.6575 68.533 88.0402 69.2408 88.829 69.2408C89.4554 69.2408 90.0005 68.7303 90.0005 67.8138C90.0005 66.9205 89.525 66.3409 88.829 66.3409C88.2257 66.3409 87.6575 66.7814 87.6575 67.8138ZM92.4173 71.3056C92.4173 71.3056 92.7419 71.5256 93.0319 71.5256C93.3569 71.5256 93.7861 71.4329 93.9947 70.9228L94.1107 70.6442L91.5704 64.7862H93.8438L94.7257 67.5356C94.8298 67.8602 94.9458 68.4634 94.9458 68.4634H94.969C94.969 68.4634 95.0853 67.8952 95.1662 67.5702L95.9204 64.7862H98.1125L95.665 71.3983C95.1663 72.7321 94.1225 73.1963 93.171 73.1963C92.3823 73.1963 91.779 72.7785 91.779 72.7785L92.4173 71.3056Z" fill="white"/>
<path fill-rule="evenodd" clip-rule="evenodd" d="M58.8387 25.3422C60.3095 25.3422 61.4275 25.7187 62.1922 26.4716C62.9573 27.2249 63.3397 28.337 63.3397 29.8078C63.3397 30.4785 63.2398 31.0847 63.0395 31.626C62.8393 32.1673 62.5455 32.6289 62.1568 33.0116C61.7685 33.394 61.2863 33.6912 60.7096 33.9028C60.1329 34.1149 59.4681 34.2207 58.7148 34.2207H54.7584C53.678 34.2207 52.802 33.3447 52.802 32.2638V23.965C52.802 22.0436 54.3592 20.4863 56.2803 20.4863H60.8508V23.4162H57.131C56.6508 23.4162 56.2613 23.8057 56.2613 24.2858V25.3422H58.8387ZM56.2613 31.4316H57.8324C59.0916 31.4316 59.721 30.8786 59.721 29.7724C59.721 29.1957 59.571 28.775 59.2708 28.5103C58.9711 28.2455 58.4854 28.1131 57.8147 28.1131H56.2613V31.4316Z" fill="#FFC925"/>
<path fill-rule="evenodd" clip-rule="evenodd" d="M54.4912 34.2207C55.4895 34.2207 56.2989 33.4113 56.2989 32.413C56.2989 31.4148 55.4895 30.6054 54.4912 30.6054C53.493 30.6054 52.6836 31.4148 52.6836 32.413C52.6836 33.4113 53.493 34.2207 54.4912 34.2207Z" fill="white"/>
<path d="M44.8586 42.6147H47.3939L53.5735 51.9733V42.6147H56.2673V56.836H53.7122L47.5524 47.5069V56.836H44.8586V42.6147ZM64.507 46.0041C64.507 46.9315 64.1736 47.7316 63.5067 48.3939C62.8377 49.0578 62.0375 49.3909 61.1101 49.3909C60.1692 49.3909 59.3653 49.0625 58.7034 48.4006C58.0416 47.7388 57.7132 46.9382 57.7132 46.0041C57.7132 45.0766 58.0467 44.2774 58.7098 43.6138C59.3733 42.9503 60.1759 42.6173 61.1101 42.6173C62.0375 42.6173 62.8377 42.9499 63.5067 43.6138C64.1736 44.2761 64.507 45.0766 64.507 46.0041ZM62.7441 45.9973C62.7441 45.5416 62.5822 45.1491 62.2622 44.8254C61.9418 44.5021 61.5586 44.3402 61.1101 44.3402C60.6611 44.3402 60.2775 44.5025 59.958 44.8254C59.638 45.1483 59.4757 45.5416 59.4757 45.9973C59.4757 46.4627 59.6347 46.8594 59.9512 47.1827C60.2678 47.5061 60.6544 47.668 61.1101 47.668C61.5586 47.668 61.9418 47.5027 62.2622 47.1756C62.5822 46.8489 62.7441 46.4564 62.7441 45.9973ZM57.7132 50.6783H64.507V52.362H57.7132V50.6783ZM67.084 42.6147H71.1415V56.836H68.4477V45.15H66.92L67.084 42.6147Z" fill="white"/>
<path d="M9.30325 67.1368L9.50139 68.3066L4.82968 69.0983L4.13496 64.9986L8.80666 64.2069L9.00479 65.3768L5.45949 65.9775L5.75795 67.7375L9.30325 67.1368ZM6.30682 58.4375L6.59475 62.2412C6.92693 62.1611 7.18408 61.9937 7.36662 61.7412C7.54704 61.4891 7.62377 61.1776 7.59594 60.81C7.56264 60.3678 7.378 60.0015 7.04244 59.7076L7.43744 58.6786C7.80883 58.8995 8.09254 59.1777 8.28941 59.5104C8.48459 59.8447 8.6001 60.2489 8.63635 60.7253C8.69199 61.4634 8.50482 62.0831 8.07315 62.5827C7.64232 63.0822 7.07574 63.3592 6.37469 63.4123C5.65552 63.4667 5.04004 63.2791 4.53038 62.8508C4.01945 62.4229 3.73785 61.8597 3.68473 61.1578C3.62867 60.415 3.82005 59.792 4.25763 59.2907C4.69732 58.7891 5.30394 58.5087 6.08213 58.4501L6.30682 58.4375ZM5.47045 59.6866C5.21836 59.7844 5.01939 59.9547 4.87521 60.1971C4.73104 60.4403 4.67118 60.7135 4.69436 61.0191C4.71924 61.3496 4.83179 61.6321 5.03287 61.869C5.15723 62.0157 5.36886 62.1459 5.66521 62.2576L5.47045 59.6866ZM3.73237 55.7627L4.25131 55.8019C4.05697 55.5722 3.91448 55.3285 3.82806 55.0718C3.74122 54.8146 3.70834 54.5436 3.72984 54.2603C3.77621 53.6448 4.04854 53.1394 4.54555 52.7427C5.04384 52.346 5.65636 52.1765 6.38439 52.2317C7.08586 52.2849 7.65623 52.5517 8.09423 53.0335C8.53349 53.5141 8.72909 54.06 8.68314 54.6713C8.66249 54.9424 8.59461 55.1923 8.47995 55.4191C8.36613 55.6464 8.18992 55.8673 7.95132 56.0818L10.183 56.2509L10.0933 57.4342L3.64258 56.946L3.73237 55.7627ZM4.79638 54.5929C4.76814 54.9655 4.87226 55.2851 5.10707 55.5486C5.34356 55.8146 5.66648 55.9625 6.07707 55.9937C6.49694 56.0253 6.84599 55.928 7.12296 55.7012C7.40076 55.4765 7.55295 55.1763 7.58119 54.8037C7.60859 54.442 7.49983 54.1279 7.25575 53.8606C7.0104 53.593 6.68496 53.4446 6.27689 53.4134C5.8722 53.383 5.53116 53.4791 5.25461 53.703C4.97639 53.9251 4.82463 54.2223 4.79638 54.5929ZM8.86821 51.4337L4.1965 50.642L4.5152 48.7619C4.61933 48.146 4.8124 47.7472 5.09147 47.5685C5.37096 47.3885 5.66395 47.3248 5.97 47.3767C6.42612 47.4538 6.71489 47.735 6.83967 48.221C7.15626 47.641 7.60733 47.4007 8.19414 47.5002C8.51072 47.5537 8.75902 47.6802 8.93861 47.8779C9.11903 48.076 9.22147 48.3079 9.24803 48.5701C9.27459 48.831 9.24887 49.1873 9.17257 49.6375L8.86821 51.4337ZM6.23347 49.7838L6.31104 49.3272C6.34392 49.1325 6.32115 48.9744 6.24317 48.8525C6.16602 48.7311 6.06822 48.6603 5.95061 48.6401C5.7765 48.6106 5.63275 48.6392 5.51724 48.7235C5.40342 48.8087 5.33429 48.9204 5.31068 49.0599L5.2896 49.2117L5.22173 49.6122L6.23347 49.7838ZM8.16041 50.11L8.26116 49.5161C8.30037 49.2842 8.27507 49.1126 8.1836 49.0009C8.09296 48.8888 7.99642 48.8239 7.89567 48.807C7.74433 48.7813 7.59763 48.8108 7.45514 48.8951C7.31266 48.9794 7.21696 49.1599 7.17059 49.4339L7.0867 49.9283L8.16041 50.11ZM6.10616 42.0385L6.43624 40.8986L10.9878 42.2164L10.6577 43.3563L10.1733 43.2159C10.3201 43.5004 10.4069 43.7681 10.4347 44.0194C10.4625 44.2706 10.4389 44.5286 10.3635 44.79C10.1923 45.3802 9.81798 45.8228 9.23791 46.1208C8.65911 46.4193 8.03141 46.4699 7.35566 46.2743C6.65419 46.0711 6.14031 45.6963 5.81233 45.1504C5.48563 44.6058 5.40722 44.0362 5.57921 43.4423C5.65889 43.1678 5.78409 42.9271 5.95524 42.7163C6.12597 42.5056 6.34434 42.3289 6.60655 42.1835L6.10616 42.0385ZM6.69297 43.5106C6.59053 43.8651 6.62889 44.1952 6.81185 44.5004C6.9927 44.8064 7.27851 45.0164 7.66845 45.1293C8.06134 45.2432 8.4184 45.2179 8.74174 45.053C9.06381 44.8878 9.27585 44.6315 9.37703 44.2833C9.48073 43.9245 9.44279 43.5902 9.2611 43.2821C9.08109 42.9726 8.78853 42.7593 8.38384 42.6421C7.98841 42.5279 7.63388 42.5536 7.3194 42.7197C7.00703 42.885 6.79751 43.1493 6.69297 43.5106ZM9.87531 39.6027C9.70036 39.8093 9.47356 39.9454 9.19491 40.0108C8.91668 40.0761 8.64183 40.0529 8.37035 39.9429C8.04533 39.8114 7.79745 39.6036 7.6284 39.3186C7.45852 39.0328 7.39402 38.7482 7.43365 38.4645C7.47327 38.1804 7.60395 37.7664 7.82569 37.2192L8.27803 36.1025L12.6694 37.8815L12.2242 38.9813L10.6362 38.338L10.5498 38.5518L11.7116 40.2469L11.1817 41.5549L9.87531 39.6027ZM9.80912 38.0033L8.75059 37.5746L8.59419 37.9603C8.42388 38.381 8.51368 38.6626 8.86483 38.8051C9.21936 38.9485 9.49211 38.7862 9.68223 38.3161L9.80912 38.0033ZM15.6574 31.513C15.735 32.0573 15.6414 32.5357 15.3754 32.9463C15.0529 33.4442 14.5736 33.749 13.9383 33.8598C13.3034 33.9694 12.6888 33.832 12.0923 33.4454C11.4696 33.042 11.0801 32.5357 10.9225 31.9253C10.764 31.3162 10.8478 30.7605 11.1729 30.2589C11.4625 29.812 11.8676 29.5233 12.3857 29.393L10.4887 28.1642L11.1341 27.168L13.0311 28.3973C12.9291 27.8632 13.0227 27.3712 13.314 26.9218C13.5209 26.6023 13.7992 26.3591 14.1461 26.1925C14.4935 26.0256 14.88 25.9569 15.3083 25.9885C15.7354 26.0184 16.1654 26.1748 16.6008 26.4573C17.2087 26.851 17.5873 27.3603 17.7382 27.9863C17.8883 28.6136 17.8056 29.1709 17.487 29.6628C17.2201 30.0747 16.8259 30.3596 16.3024 30.5169L18.0982 31.6804L17.4532 32.6765L15.6574 31.513ZM15.9415 27.4442C15.6009 27.2233 15.259 27.1385 14.9154 27.1904C14.5715 27.2401 14.2996 27.4189 14.1014 27.7245C13.9307 27.9875 13.8873 28.2856 13.9686 28.6186C14.0517 28.9504 14.2861 29.2421 14.6731 29.4929C15.0326 29.7256 15.3758 29.8137 15.7017 29.7568C16.0279 29.6991 16.2809 29.53 16.463 29.2493C16.6514 28.9584 16.6974 28.641 16.6034 28.2965C16.5077 27.9521 16.2876 27.6684 15.9415 27.4442ZM14.058 30.4338C13.7958 30.264 13.5513 30.1678 13.3274 30.1472C13.104 30.1261 12.8941 30.1548 12.6985 30.2374C12.5029 30.3179 12.3448 30.4528 12.2234 30.64C12.0164 30.9595 11.9683 31.2845 12.0788 31.615C12.1913 31.9451 12.4068 32.2137 12.7276 32.4215C13.0707 32.6441 13.4193 32.7296 13.7705 32.6795C14.1238 32.6302 14.3927 32.4603 14.5803 32.1711C14.7607 31.8924 14.8109 31.5935 14.7317 31.2727C14.6516 30.9532 14.4273 30.6733 14.058 30.4338ZM16.4735 23.0431L16.8647 23.3867C16.8474 23.0865 16.8803 22.8062 16.9655 22.549C17.0511 22.2915 17.1876 22.055 17.3752 21.8412C17.7825 21.3779 18.3044 21.1376 18.9396 21.1195C19.5766 21.1027 20.1676 21.3354 20.7161 21.8172C21.2447 22.2818 21.5398 22.8382 21.5997 23.4866C21.6616 24.1345 21.4896 24.6884 21.0854 25.1488C20.9058 25.3532 20.7009 25.5122 20.4733 25.6247C20.2456 25.7373 19.972 25.8077 19.6521 25.8359L21.3337 27.313L20.55 28.2046L15.6903 23.9347L16.4735 23.0431ZM18.0274 22.7488C17.7808 23.0296 17.6716 23.347 17.7007 23.6995C17.7298 24.0536 17.8984 24.3664 18.2078 24.6383C18.5244 24.9161 18.8616 25.048 19.2191 25.0337C19.5766 25.021 19.8789 24.8731 20.1255 24.5923C20.3649 24.3196 20.4665 24.0034 20.4328 23.643C20.3978 23.2817 20.2267 22.9672 19.9198 22.697C19.6146 22.4293 19.2841 22.3007 18.9287 22.3134C18.5729 22.3235 18.2727 22.4698 18.0274 22.7488ZM22.7252 16.7716L23.6236 15.9963L26.7186 19.5842L25.8203 20.3595L25.4906 19.9775C25.4586 20.2958 25.3853 20.5677 25.2714 20.7932C25.158 21.0192 24.9974 21.2224 24.7913 21.4003C24.3263 21.8012 23.7707 21.9681 23.1219 21.9015C22.474 21.8357 21.9205 21.5356 21.461 21.0028C20.9838 20.4501 20.7578 19.8557 20.7806 19.2191C20.8042 18.5843 21.0491 18.0641 21.5175 17.6602C21.7337 17.4735 21.9702 17.3403 22.2286 17.2572C22.4866 17.1737 22.7661 17.1451 23.065 17.1657L22.7252 16.7716ZM22.4137 18.3254C22.1342 18.5661 21.9867 18.8642 21.9732 19.2196C21.9576 19.5749 22.0828 19.9067 22.3479 20.2144C22.6148 20.5239 22.928 20.6975 23.2888 20.7359C23.6489 20.773 23.9667 20.6739 24.2411 20.437C24.524 20.1934 24.6745 19.8924 24.6905 19.5353C24.7082 19.1778 24.5797 18.8393 24.3044 18.5202C24.0354 18.2082 23.7243 18.0371 23.3702 18.0046C23.0182 17.9722 22.6982 18.0797 22.4137 18.3254ZM26.8422 15.6389L28.2986 14.6073L27.3139 13.2166L28.2822 12.5307L31.0206 16.3977L30.0523 17.0835L28.9175 15.4812L27.461 16.5127L28.5954 18.1151L27.6271 18.8005L24.8887 14.934L25.857 14.2481L26.8422 15.6389ZM38.0712 12.5299L32.0045 15.6979L29.8112 11.4975L30.8634 10.9482L32.5277 14.136L33.9833 13.3759L32.3186 10.1881L33.3704 9.63882L35.0351 12.8266L36.4908 12.067L34.826 8.87918L35.8778 8.32989L38.0712 12.5299ZM39.7827 11.8722L39.1849 12.078L37.6425 7.59806L38.7394 7.22035L39.6453 9.85129L41.0343 6.43035L41.5743 6.24444L43.1168 10.7248L42.0195 11.1025L41.1321 8.52465L39.7827 11.8722ZM44.5729 8.1718L44.3849 7.34555L44.6138 7.29328C44.7693 7.25786 44.8958 7.19084 44.9948 7.09051C45.0939 6.99144 45.1255 6.86076 45.0884 6.69719C45.0564 6.55639 44.9776 6.45227 44.8536 6.3844C44.7284 6.31695 44.591 6.30093 44.4401 6.33508C44.25 6.3785 44.032 6.52435 43.7862 6.77392L43.1514 6.07624C43.4781 5.66817 43.8874 5.40849 44.3777 5.29678C44.8283 5.19434 45.2275 5.22554 45.5779 5.39121C45.9269 5.5573 46.1461 5.83679 46.2359 6.23264C46.3274 6.6348 46.1857 7.0083 45.8101 7.35482C46.4353 7.43492 46.8113 7.75235 46.9374 8.30586C47.031 8.71772 46.9479 9.09712 46.6861 9.44153C46.4248 9.78637 46.0087 10.0229 45.4375 10.1531C44.811 10.2956 44.2533 10.2379 43.766 9.98028L44.2179 9.02925C44.5396 9.17089 44.825 9.21263 45.0745 9.15572C45.2731 9.11061 45.4206 9.02672 45.5167 8.90573C45.612 8.78475 45.6428 8.64985 45.6091 8.50062C45.5762 8.35644 45.4927 8.24473 45.3595 8.16211C45.2259 8.07948 45.0644 8.05967 44.8747 8.10309L44.5729 8.1718ZM50.989 4.17881L52.1647 4.01946L52.8021 8.71477L51.6264 8.87412L51.5585 8.37457C51.3578 8.62371 51.1479 8.8113 50.9295 8.93861C50.7112 9.06593 50.4658 9.14855 50.196 9.18523C49.5873 9.26785 49.0308 9.10471 48.5233 8.69495C48.0162 8.28647 47.716 7.73296 47.6216 7.0357C47.5233 6.31231 47.6578 5.69094 48.0242 5.16989C48.3901 4.65053 48.8791 4.34827 49.492 4.26523C49.7753 4.22687 50.0459 4.24415 50.3077 4.31539C50.5699 4.38621 50.8195 4.51437 51.0589 4.69479L50.989 4.17881ZM49.8803 5.31111C49.5148 5.36086 49.2285 5.5299 49.0233 5.82078C48.8167 6.10996 48.7404 6.45648 48.7948 6.85865C48.85 7.26377 49.0173 7.58036 49.2989 7.80926C49.5805 8.0369 49.9009 8.12712 50.2601 8.07822C50.6302 8.02805 50.9207 7.85774 51.1289 7.56729C51.3389 7.27726 51.4152 6.92315 51.3587 6.50581C51.3035 6.09774 51.1361 5.78452 50.857 5.56405C50.5796 5.34526 50.2529 5.26095 49.8803 5.31111ZM56.4878 8.43991L56.5666 3.70203L58.4729 3.73364C59.0976 3.74418 59.5209 3.87487 59.7397 4.12401C59.9601 4.37272 60.0672 4.65306 60.0617 4.96375C60.0541 5.42578 59.8198 5.75375 59.3582 5.95019C59.9791 6.17615 60.2847 6.5859 60.275 7.18072C60.2696 7.50195 60.1819 7.76626 60.0133 7.97367C59.8446 8.18192 59.6313 8.31808 59.3759 8.38385C59.1217 8.44961 58.7659 8.47785 58.3093 8.47026L56.4878 8.43991ZM57.7221 5.58639L58.185 5.5944C58.3827 5.59777 58.5353 5.5514 58.6436 5.45613C58.7524 5.36128 58.8076 5.25378 58.8097 5.13448C58.8127 4.95785 58.7629 4.82 58.6617 4.71882C58.5606 4.61891 58.4396 4.56748 58.2984 4.56538L58.1449 4.56748L57.739 4.56074L57.7221 5.58639ZM57.6896 7.54073L58.292 7.55085C58.5268 7.55464 58.6925 7.50363 58.7899 7.39656C58.8869 7.2899 58.9362 7.18494 58.9379 7.0825C58.9404 6.92905 58.8894 6.78867 58.7844 6.66052C58.6794 6.53236 58.4868 6.46492 58.209 6.46028L57.7078 6.45185L57.6896 7.54073ZM62.8546 5.6159L63.2053 5.66353C63.7002 5.73056 64.0741 5.82035 64.3279 5.93164C64.5825 6.04378 64.7832 6.23306 64.9337 6.49864C65.0821 6.76464 65.1318 7.08081 65.0825 7.44462C65.0336 7.80589 64.9101 8.09676 64.714 8.31302C64.5163 8.53097 64.2857 8.66165 64.0202 8.70676C63.7542 8.75018 63.3925 8.74175 62.9313 8.67894L61.2716 8.45382L61.909 3.75852L63.0851 3.91829L62.8546 5.6159ZM62.5713 7.70261L62.9309 7.75151C63.1459 7.7806 63.3031 7.78734 63.403 7.76879C63.5012 7.75235 63.5931 7.70598 63.677 7.63052C63.7609 7.5538 63.8115 7.45558 63.8284 7.33122C63.8827 6.932 63.6787 6.70014 63.2158 6.63733L62.7247 6.57073L62.5713 7.70261ZM66.3391 4.35966L67.5149 4.51943L66.8775 9.21474L65.7018 9.05497L66.3391 4.35966ZM73.1275 8.54657L69.411 7.6887C69.3883 8.03016 69.4713 8.32525 69.6581 8.57481C69.8448 8.82184 70.1197 8.98794 70.4788 9.07098C70.9109 9.17047 71.3156 9.10344 71.6959 8.87074L72.5609 9.55451C72.2393 9.84328 71.8894 10.0313 71.5129 10.1198C71.1356 10.2067 70.7153 10.1965 70.2499 10.0895C69.5287 9.92295 68.9924 9.55915 68.6442 8.99848C68.296 8.43865 68.2003 7.81516 68.3584 7.12971C68.5207 6.42698 68.8828 5.89539 69.4435 5.53664C70.0042 5.17621 70.626 5.07504 71.3114 5.23355C72.0373 5.4009 72.5752 5.76977 72.9235 6.33676C73.2712 6.90544 73.3581 7.56813 73.1827 8.32862L73.1275 8.54657ZM72.1845 7.37674C72.1659 7.10695 72.0626 6.86624 71.8742 6.6563C71.6849 6.44637 71.4421 6.30767 71.1436 6.23854C70.8203 6.16392 70.5172 6.18711 70.2314 6.30894C70.0539 6.38398 69.8667 6.54712 69.672 6.79668L72.1845 7.37674ZM74.9301 9.27923L75.1885 8.47237L75.4123 8.54404C75.5641 8.59252 75.707 8.59884 75.8436 8.56301C75.9793 8.52844 76.0729 8.4319 76.1243 8.27213C76.1686 8.1347 76.1539 8.00486 76.0813 7.88346C76.008 7.76205 75.898 7.67774 75.7504 7.63052C75.5649 7.57108 75.3027 7.58584 74.9646 7.67563L74.7728 6.752C75.2618 6.56693 75.7466 6.55176 76.2251 6.7052C76.6652 6.84642 76.9932 7.07617 77.2103 7.3974C77.4265 7.71778 77.4725 8.06979 77.3485 8.45635C77.2229 8.84925 76.9105 9.09881 76.411 9.20546C76.9084 9.59287 77.0703 10.0574 76.8971 10.5983C76.7681 11.0005 76.5033 11.2846 76.1028 11.4477C75.7024 11.6117 75.2239 11.6033 74.6658 11.4245C74.0541 11.2285 73.6034 10.8951 73.3151 10.425L74.1881 9.83653C74.393 10.1223 74.6173 10.3032 74.8609 10.3816C75.0549 10.4436 75.2243 10.4465 75.3685 10.3913C75.5127 10.3357 75.6079 10.2353 75.6543 10.0895C75.6994 9.94909 75.6847 9.80997 75.6117 9.67128C75.5392 9.53217 75.4102 9.4331 75.2247 9.37366L74.9301 9.27923ZM77.8843 12.6024L77.5467 13.3502L76.5788 12.9135L77.3317 11.2462L77.9809 11.5396L81.0136 8.81636L81.7129 9.13211L81.6847 13.2124L82.3491 13.5121L81.5962 15.1794L80.5638 14.7127L80.9014 13.9648L77.8843 12.6024ZM80.533 12.6922L80.6481 10.5477L79.0812 12.0362L80.533 12.6922ZM85.1946 12.9877L86.6924 13.9581L87.6194 12.5278L88.6151 13.1732L86.0385 17.1497L85.0428 16.5043L86.1102 14.8569L84.6124 13.886L83.545 15.5339L82.5489 14.8885L85.1254 10.9119L86.1212 11.5573L85.1946 12.9877ZM89.8351 16.1658L90.1137 16.3842C90.507 16.6923 90.7844 16.9583 90.9472 17.1826C91.1103 17.4081 91.1879 17.6729 91.1836 17.9781C91.1773 18.2824 91.061 18.5805 90.8346 18.8697C90.6099 19.1567 90.3566 19.3456 90.0779 19.4333C89.7971 19.5214 89.532 19.5176 89.2799 19.4223C89.0286 19.3258 88.7209 19.1357 88.3541 18.8486L87.0355 17.8158L89.9569 14.0854L90.8915 14.8168L89.8351 16.1658ZM88.5367 17.8242L88.8225 18.0476C88.9932 18.1817 89.1256 18.2664 89.2209 18.301C89.314 18.3364 89.4169 18.3431 89.5273 18.3204C89.6386 18.2964 89.7322 18.2369 89.8094 18.1387C90.0577 17.8213 89.9986 17.5182 89.631 17.2298L89.2411 16.9246L88.5367 17.8242ZM93.4769 16.8416L94.4111 17.5734L91.4897 21.3037L90.5555 20.5723L93.4769 16.8416ZM95.4532 18.6285L96.403 19.6323L96.1096 21.2L97.6879 20.9901L98.6246 21.9795L95.8946 22.3429L95.3238 25.3853L94.374 24.382L94.7281 22.4989L92.8315 22.7518L91.8952 21.7624L94.9414 21.3552L95.4532 18.6285ZM100.926 24.6897L101.725 25.8174L101.213 27.3278L102.805 27.3426L103.592 28.4546L100.838 28.4289L99.8437 31.3604L99.0453 30.2332L99.6616 28.4188L97.7481 28.4015L96.9611 27.2899L100.034 27.3164L100.926 24.6897ZM100.441 32.4506L100.127 31.9017L104.243 29.5528L104.818 30.5603L102.401 31.9396L106.021 32.6681L106.304 33.1643L102.189 35.5128L101.613 34.5052L103.981 33.1537L100.441 32.4506ZM105.509 38.6243L108.824 38.9202L109.106 39.652L105.107 42.455L104.69 41.3695L107.057 39.7785L103.953 39.4556L103.778 39.0003L105.88 36.7129L103.054 37.1168L102.637 36.0342L107.485 35.4394L107.766 36.1708L105.509 38.6243ZM107.801 45.0421L107.535 44.1235C107.355 43.5021 107.335 42.9895 107.477 42.5861C107.618 42.1826 107.963 41.9019 108.509 41.7438L109.717 41.3939L110.048 42.5338L108.927 42.858C108.529 42.9735 108.407 43.2998 108.563 43.8385L108.696 44.2841L108.829 44.744L110.544 44.2479L110.874 45.3882L106.323 46.706L105.992 45.5656L107.801 45.0421ZM106.638 48.5111L106.532 47.8876L111.204 47.0959L111.398 48.2396L108.654 48.7046L111.803 50.6324L111.899 51.1955L107.227 51.9872L107.033 50.8436L109.721 50.3883L106.638 48.5111ZM111.436 57.5252L110.819 56.5801C110.999 56.3799 111.119 56.1876 111.181 56.0009C111.243 55.8141 111.263 55.5996 111.245 55.3559C111.211 54.9124 111.053 54.5638 110.769 54.3109C110.485 54.0567 110.138 53.9454 109.725 53.9766C109.325 54.0069 109.009 54.1637 108.775 54.4453C108.541 54.7286 108.441 55.0836 108.474 55.5123C108.514 56.0418 108.726 56.4402 109.11 56.7095L108.54 57.6905C107.844 57.2335 107.46 56.5434 107.39 55.6194C107.327 54.7876 107.524 54.1178 107.979 53.6107C108.435 53.1035 108.991 52.8245 109.65 52.7743C110.106 52.7401 110.534 52.8219 110.936 53.0217C111.337 53.2224 111.664 53.5183 111.915 53.9125C112.165 54.305 112.309 54.7552 112.348 55.2623C112.383 55.7324 112.322 56.1607 112.163 56.5485C112.005 56.9363 111.762 57.2622 111.436 57.5252ZM112.375 58.8325L112.042 63.2369L110.912 63.1513L111.031 61.5764L107.436 61.3045L107.526 60.1212L111.12 60.3931L111.245 58.7469L112.375 58.8325ZM111.7 66.6697C111.625 67.111 111.445 67.5077 111.159 67.8589C110.873 68.2113 110.524 68.4634 110.11 68.6177C109.695 68.772 109.271 68.8116 108.833 68.7374C108.393 68.6632 108.001 68.4832 107.656 68.2003C107.31 67.9158 107.062 67.5655 106.91 67.1507C106.759 66.7346 106.721 66.2995 106.799 65.8438C106.913 65.1719 107.247 64.639 107.802 64.2457C108.36 63.8516 108.978 63.712 109.656 63.8271C110.385 63.9506 110.947 64.3216 111.341 64.9409C111.684 65.483 111.803 66.058 111.7 66.6697ZM110.597 66.501C110.659 66.1356 110.585 65.811 110.373 65.5264C110.16 65.2414 109.858 65.0648 109.464 64.9982C109.059 64.9295 108.71 64.994 108.419 65.1904C108.128 65.3869 107.951 65.6693 107.888 66.0373C107.826 66.4041 107.902 66.7304 108.114 67.0183C108.326 67.305 108.633 67.4816 109.032 67.549C109.432 67.6169 109.776 67.552 110.067 67.3555C110.357 67.1587 110.534 66.8733 110.597 66.501ZM110.864 70.61L110.534 71.7499L108.83 71.2562L110.076 73.3341L109.673 74.7269L108.051 72.0483L105.114 73.4348L105.553 71.9164L107.552 71.0197L107.447 70.8562L105.983 70.4321L106.313 69.2922L110.864 70.61Z" fill="#3F3E40"/>
</g>
<defs>
<clipPath id="clip0">
<rect width="116" height="116" fill="white" transform="translate(0.000244141)"/>
</clipPath>
</defs>
</svg>
